{
  "project_info": {
    "project_number": "77546308475",
    "project_id": "amamagement-478ec",
    "storage_bucket": "amamagement-478ec.appspot.com"
  },
  "client": [
    {
      "client_info": {
        "mobilesdk_app_id": "1:77546308475:android:1bbaf9554a4c4c079b33de",
        "android_client_info": {
          "package_name": "com.example.amanagement"
        }
      },
      "oauth_client": [
        {
          "client_id": "77546308475-ch49oa6livdgca0cd9245nl4q6p6dgcr.apps.googleusercontent.com",
          "client_type": 3
        }
      ],
      "api_key": [
        {
          "current_key": "AIzaSyCP0ZzOok1vj0-ThytcDjrn0P8q9mwFDHc"
        }
      ],
      "services": {
        "appinvite_service": {
          "other_platform_oauth_client": [
            {
              "client_id": "77546308475-ch49oa6livdgca0cd9245nl4q6p6dgcr.apps.googleusercontent.com",
              "client_type": 3
            }
          ]
        }
      }
    },
    {
      "client_info": {
        "mobilesdk_app_id": "1:77546308475:android:d36743525bd02fe59b33de",
        "android_client_info": {
          "package_name": "com.example.amanagementadmin"
        }
      },
      "oauth_client": [
        {
          "client_id": "77546308475-ch49oa6livdgca0cd9245nl4q6p6dgcr.apps.googleusercontent.com",
          "client_type": 3
        }
      ],
      "api_key": [
        {
          "current_key": "AIzaSyCP0ZzOok1vj0-ThytcDjrn0P8q9mwFDHc"
        }
      ],
      "services": {
        "appinvite_service": {
          "other_platform_oauth_client": [
            {
              "client_id": "77546308475-ch49oa6livdgca0cd9245nl4q6p6dgcr.apps.googleusercontent.com",
              "client_type": 3
            }
          ]
        }
      }
    }
  ],
  "configuration_version": "1"
}